Final_Project
…
#summarize mean sst
  summarize(
    mean_monthly_sst = mean(temp),
    .groups = "drop" #removing extra info for structure
    )
sst_summary #display summary

# A tibble: 72 × 3
   year  month mean_monthly_sst
   <fct> <ord>            <dbl>
 1 2018  Jan               15.0
 2 2018  Feb               14.3
 3 2018  Mar               13.5
 4 2018  Apr               12.8
 5 2018  May               13.6
 6 2018  Jun               15.5
 7 2018  Jul               18.2
 8 2018  Aug               19.6
 9 2018  Sep               18.2
10 2018  Oct               18.5
# ℹ 62 more rows
…
